…
#> Number of cells: 379 
#> Grid reference system: mgrs 
#> Coordinate range:
#>      xmin      xmax      ymin      ymax 
#>  2.428844  6.334746 49.445981 51.444030 
#> 
#> Total number of observations: 17609484 
#> Number of species represented: 734 
#> Number of families represented: 95 
#> 
#> Kingdoms represented: Data not present 
#> 
#> First 10 rows of data (use n = to show more):
#> 
#> # A tibble: 557,967 × 11
#>     year cellCode taxonKey scientificName    family   obs minCoordinateUncerta…¹
#>    <dbl> <chr>       <dbl> <chr>             <chr>  <dbl>                  <dbl>
#>  1  2000 31UDS65   2473958 Perdix perdix     Phasi…     1                   3536
#>  2  2000 31UDS65   2474156 Coturnix coturnix Phasi…     1                   3536
#>  3  2000 31UDS65   2474377 Fulica atra       Ralli…     5                   1000
#>  4  2000 31UDS65   2475443 Merops apiaster   Merop…     6                   1000
#>  5  2000 31UDS65   2480242 Vanellus vanellus Chara…     1                   3536
#>  6  2000 31UDS65   2480637 Accipiter nisus   Accip…     1                   3536
#>  7  2000 31UDS65   2481172 Larus marinus     Larid…     1                   3536
#>  8  2000 31UDS65   2481174 Larus fuscus      Larid…     1                   3536
#>  9  2000 31UDS65   2481890 Phalacrocorax ca… Phala…     2                   1000
#> 10  2000 31UDS65   2482054 Podiceps cristat… Podic…     5                   1000
#> # ℹ 557,957 more rows
#> # ℹ abbreviated name: ¹​minCoordinateUncertaintyInMeters
#> # ℹ 4 more variables: familyCount <dbl>, xcoord <dbl>, ycoord <dbl>,
#> #   resolution <chr>
```
…
