…
#> Date Range: 1 - 5 
#> Number of cells: 400 
#> Grid reference system: custom 
#> Coordinate range:
#> [1] "Coordinates not provided"
#> 
#> Total number of observations: 6012 
#> Number of species represented: 3 
#> Number of families represented: Data not present 
#> 
#> Kingdoms represented: Data not present 
#> 
#> First 10 rows of data (use n = to show more):
#> 
#> # A tibble: 6,000 × 6
#>    cellCode  year scientificName taxonKey   obs minCoordinateUncertaintyInMeters
#>    <chr>    <dbl> <chr>             <dbl> <dbl>                            <dbl>
#>  1 105          1 species_1             1     1                               25
#>  2 108          1 species_1             1     1                               25
#>  3 109          1 species_1             1     1                               25
#>  4 110          1 species_1             1     1                               25
#>  5 111          1 species_1             1     2                               25
#>  6 112          1 species_1             1     3                               25
#>  7 113          1 species_1             1     2                               25
#>  8 117          1 species_1             1     2                               25
#>  9 118          1 species_1             1     1                               25
#> 10 119          1 species_1             1     1                               25
#> # ℹ 5,990 more rows
```
…
