…
#> Number of cells: 323 
#> Grid reference system: eqdgc 
#> Coordinate range:
#>  xmin  xmax  ymin  ymax 
#>  3.25 15.75 54.25 58.25 
#> 
#> Total number of observations: 204664 
#> Number of species represented: 100 
#> Number of families represented: 31 
#> 
#> Kingdoms represented: Animalia 
#> 
#> First 10 rows of data (use n = to show more):
#> 
#> # A tibble: 30,985 × 15
#>     year cellCode  kingdomKey kingdom  familyKey family     taxonKey scientificName   obs minCoordinateUncerta…¹ minTemporalUncertainty
#>    <dbl> <chr>          <dbl> <chr>        <dbl> <chr>         <dbl> <chr>          <dbl>                  <dbl>                  <dbl>
#>  1  1980 E008N55CB          1 Animalia      5310 Phocidae    2434793 Phoca vitulina     1                      3                  86400
#>  2  1980 E008N56BB          1 Animalia      5307 Mustelidae  5218987 Mustela nival…     1                   1000                  86400
#>  3  1980 E008N57DC          1 Animalia      9361 Phocoenid…  2440669 Phocoena phoc…    27                   1000                  86400
#>  4  1980 E009N55BB          1 Animalia      5722 Erinaceid…  5219616 Erinaceus eur…     1                     50                  86400
#>  5  1980 E009N56BB          1 Animalia      9368 Vespertil…  5218507 Plecotus auri…     1                   1000                2678400
#>  6  1980 E009N57DD          1 Animalia      9361 Phocoenid…  2440669 Phocoena phoc…     1                   1000                  86400
#>  7  1980 E010N55AA          1 Animalia      5310 Phocidae    2434793 Phoca vitulina     1                      3                  86400
#>  8  1980 E010N55AA          1 Animalia      5307 Mustelidae  5219019 Mustela ermin…     1                    930                  86400
#>  9  1980 E010N55BB          1 Animalia      5310 Phocidae    2434793 Phoca vitulina     1                      3                  86400
#> 10  1980 E010N56CB          1 Animalia      5307 Mustelidae  5218887 Martes foina       1                     92                  86400
#> # ℹ 30,975 more rows
#> # ℹ abbreviated name: ¹​minCoordinateUncertaintyInMeters
#> # ℹ 4 more variables: familyCount <dbl>, xcoord <dbl>, ycoord <dbl>, resolution <chr>
```
…
