…
#> Number of cells: 242 
#> Grid reference system: mgrs 
#> Coordinate range:
#>    xmin    xmax    ymin    ymax 
#>  280000  710000 5490000 5700000 
#> 
#> Total number of observations: 45143 
#> Number of species represented: 253 
#> Number of families represented: 57 
#> 
#> Kingdoms represented: Data not present 
#> 
#> First 10 rows of data (use n = to show more):
#> 
#> # A tibble: 957 × 13
#>     year cellCode taxonKey scientificName      family   obs minCoordinateUncerta…¹ familyCount xcoord
#>    <dbl> <chr>       <dbl> <chr>               <chr>  <dbl>                  <dbl>       <dbl>  <dbl>
#>  1  2011 31UFS56   5231918 Cuculus canorus     Cucul…    11                   3536       67486 650000
#>  2  2011 31UES28   5739317 Phoenicurus phoeni… Musci…     6                   3536      610513 520000
#>  3  2011 31UFS64   6065824 Chroicocephalus ri… Larid…   143                   1000     2612978 660000
#>  4  2011 31UFS96   2492576 Muscicapa striata   Musci…     3                   3536      610513 690000
#>  5  2011 31UES04   5231198 Passer montanus     Passe…     1                   3536      175872 500000
#>  6  2011 31UES85   5229493 Garrulus glandarius Corvi…    23                    707      816442 580000
#>  7  2011 31UES88  10124612 Anser anser x Bran… Anati…     1                    100     2709975 580000
#>  8  2011 31UES22   2481172 Larus marinus       Larid…     8                   1000     2612978 520000
#>  9  2011 31UFS43   2481139 Larus argentatus    Larid…    10                   3536     2612978 640000
#> 10  2011 31UFT00   9274012 Spatula querquedula Anati…     8                   3536     2709975 600000
#> # ℹ 947 more rows
#> # ℹ abbreviated name: ¹​minCoordinateUncertaintyInMeters
#> # ℹ 4 more variables: ycoord <dbl>, utmzone <int>, hemisphere <chr>, resolution <chr>
```
…
